…
```r
cn.model.params.chr <- karyotapR:::.fitGaussianDistributions(simulated.tapestri.experiment = simulated.tapestri.experiment,
    chromosome.scope = "chr")
cn.model.params.chr
#> # A tibble: 138 × 4
#>    feature.id cn.sim.class  mean    sd
#>    <fct>      <fct>        <dbl> <dbl>
#>  1 1          sim_cn1       1.01 0.147
#>  2 1          sim_cn2       2.01 0.301
#>  3 1          sim_cn3       3.01 0.453
#>  4 1          sim_cn4       4.07 0.590
#>  5 1          sim_cn5       5.03 0.762
#>  6 1          sim_cn6       6.01 0.938
#>  7 2          sim_cn1       1.02 0.134
#>  8 2          sim_cn2       2.01 0.272
#>  9 2          sim_cn3       3.03 0.404
#> 10 2          sim_cn4       4.04 0.575
#> # ℹ 128 more rows
```
…
To demonstrate this another way, let's look at a visual.
The "bins" for assigning a smoothed copy number value to a discrete copy number integer can be determined by calculating the boundaries between the copy number components' probability density functions (PDF).
Smoothed copy number values (x-axis) will be assigned to the copy number bin for which it has the highest posterior probability of belonging, which 
is the bin whose boundaries the value falls within. 


```r
getGMMBoundaries(cellmix)
#> # A tibble: 23 × 6
#>    feature.id boundary.1 boundary.2 boundary.3 boundary.4 boundary.5
#>    <fct>           <dbl>      <dbl>      <dbl>      <dbl>      <dbl>
#>  1 1                1.36       2.46       3.51       4.51       5.57
#>  2 2                1.37       2.47       3.54       4.55       5.6 
#>  3 3                1.39       2.47       3.57       4.64       5.69
#>  4 4                1.41       2.49       3.58       4.65       5.74
#>  5 5                1.41       2.49       3.56       4.64       5.7 
#>  6 6                1.38       2.45       3.49       4.57       5.58
#>  7 7                1.39       2.48       3.53       4.58       5.63
#>  8 8                1.39       2.46       3.5        4.55       5.59
#>  9 9                1.38       2.5        3.54       4.61       5.71
#> 10 10               1.38       2.48       3.57       4.61       5.65
#> # ℹ 13 more rows
…
