…
# setting manually
grnaProbe(cellmix) <- "probe_id_123"
```

The `gmmParams` slot stores information for the [GMM models](https://joeymays.xyz/karyotapR/articles/GMMs-for-Copy-Number-Calling.html) generated for copy number calling in the form of two nested matrices one for whole chromosome calls and one for chromosome arm calls. The data include the 
Gaussian model parameters fit for each chromosome or arm, the probability density functions for those models, the probabilities of each cell
belonging to a copy number class, and the classification results.


```r
gmmParams(cellmix)
#> $chr
#> # A tibble: 23 × 7
#>    feature.id smoothed.cn          model            pdf                  model.evidence cn.probability cn.class
#>    <fct>      <list>               <list>           <list>               <list>         <list>         <list>  
#>  1 1          <tibble [2,987 × 2]> <tibble [6 × 3]> <tibble [2,987 × 6]> <dbl [2,987]>  <tibble>       <tibble>
#>  2 2          <tibble [2,987 × 2]> <tibble [6 × 3]> <tibble [2,987 × 6]> <dbl [2,987]>  <tibble>       <tibble>
#>  3 3          <tibble [2,987 × 2]> <tibble [6 × 3]> <tibble [2,987 × 6]> <dbl [2,987]>  <tibble>       <tibble>
#>  4 4          <tibble [2,987 × 2]> <tibble [6 × 3]> <tibble [2,987 × 6]> <dbl [2,987]>  <tibble>       <tibble>
#>  5 5          <tibble [2,987 × 2]> <tibble [6 × 3]> <tibble [2,987 × 6]> <dbl [2,987]>  <tibble>       <tibble>
#>  6 6          <tibble [2,987 × 2]> <tibble [6 × 3]> <tibble [2,987 × 6]> <dbl [2,987]>  <tibble>       <tibble>
#>  7 7          <tibble [2,987 × 2]> <tibble [6 × 3]> <tibble [2,987 × 6]> <dbl [2,987]>  <tibble>       <tibble>
#>  8 8          <tibble [2,987 × 2]> <tibble [6 × 3]> <tibble [2,987 × 6]> <dbl [2,987]>  <tibble>       <tibble>
#>  9 9          <tibble [2,987 × 2]> <tibble [6 × 3]> <tibble [2,987 × 6]> <dbl [2,987]>  <tibble>       <tibble>
#> 10 10         <tibble [2,987 × 2]> <tibble [6 × 3]> <tibble [2,987 × 6]> <dbl [2,987]>  <tibble>       <tibble>
#> # ℹ 13 more rows
#> 
#> $arm
#> # A tibble: 41 × 7
#>    feature.id smoothed.cn          model            pdf                  model.evidence cn.probability cn.class
#>    <fct>      <list>               <list>           <list>               <list>         <list>         <list>  
#>  1 chr1p      <tibble [2,987 × 2]> <tibble [6 × 3]> <tibble [2,987 × 6]> <dbl [2,987]>  <tibble>       <tibble>
#>  2 chr1q      <tibble [2,987 × 2]> <tibble [6 × 3]> <tibble [2,987 × 6]> <dbl [2,987]>  <tibble>       <tibble>
#>  3 chr2p      <tibble [2,987 × 2]> <tibble [6 × 3]> <tibble [2,987 × 6]> <dbl [2,987]>  <tibble>       <tibble>
#>  4 chr2q      <tibble [2,987 × 2]> <tibble [6 × 3]> <tibble [2,987 × 6]> <dbl [2,987]>  <tibble>       <tibble>
#>  5 chr3p      <tibble [2,987 × 2]> <tibble [6 × 3]> <tibble [2,987 × 6]> <dbl [2,987]>  <tibble>       <tibble>
#>  6 chr3q      <tibble [2,987 × 2]> <tibble [6 × 3]> <tibble [2,987 × 6]> <dbl [2,987]>  <tibble>       <tibble>
#>  7 chr4p      <tibble [2,987 × 2]> <tibble [6 × 3]> <tibble [2,987 × 6]> <dbl [2,987]>  <tibble>       <tibble>
#>  8 chr4q      <tibble [2,987 × 2]> <tibble [6 × 3]> <tibble [2,987 × 6]> <dbl [2,987]>  <tibble>       <tibble>
#>  9 chr5p      <tibble [2,987 × 2]> <tibble [6 × 3]> <tibble [2,987 × 6]> <dbl [2,987]>  <tibble>       <tibble>
#> 10 chr5q      <tibble [2,987 × 2]> <tibble [6 × 3]> <tibble [2,987 × 6]> <dbl [2,987]>  <tibble>       <tibble>
#> # ℹ 31 more rows
```
…
